module github.com/crazy-max/ftpgrab/v7

go 1.18

require (
	github.com/alecthomas/kong v0.6.1
	github.com/crazy-max/gonfig v0.6.0
	github.com/docker/go-units v0.4.0
	github.com/go-gomail/gomail v0.0.0-20160411212932-81ebce5c23df
	github.com/go-playground/validator/v10 v10.11.0
	github.com/hako/durafmt v0.0.0-20210608085754-5c1018a4e16b
	github.com/ilya1st/rotatewriter v0.0.0-20171126183947-3df0c1a3ed6d
	github.com/jlaffaye/ftp v0.0.0-20210307004419-5d4190119067
	github.com/matcornic/hermes/v2 v2.1.0
	github.com/nlopes/slack v0.6.0
	github.com/pkg/errors v0.9.1
	github.com/pkg/sftp v1.13.5
	github.com/robfig/cron/v3 v3.0.1
	github.com/rs/zerolog v1.27.0
	github.com/stretchr/testify v1.8.0
	go.etcd.io/bbolt v1.3.6
	golang.org/x/crypto v0.0.0-20211215165025-cf75a172585e
	golang.org/x/sys v0.0.0-20211216021012-1d35b9e2eb4e
)

require (
	github.com/BurntSushi/toml v1.1.0 // indirect
	github.com/Masterminds/semver v1.4.2 // indirect
	github.com/Masterminds/sprig v2.16.0+incompatible // indirect
	github.com/PuerkitoBio/goquery v1.5.0 // indirect
	github.com/andybalholm/cascadia v1.0.0 // indirect
	github.com/aokoli/goutils v1.0.1 // indirect
	github.com/davecgh/go-spew v1.1.1 // indirect
	github.com/go-playground/locales v0.14.0 // indirect
	github.com/go-playground/universal-translator v0.18.0 // indirect
	github.com/google/uuid v1.0.0 // indirect
	github.com/gorilla/css v1.0.0 // indirect
	github.com/gorilla/websocket v1.4.2 // indirect
	github.com/huandu/xstrings v1.2.0 // indirect
	github.com/imdario/mergo v0.3.6 // indirect
	github.com/jaytaylor/html2text v0.0.0-20180606194806-57d518f124b0 // indirect
	github.com/kr/fs v0.1.0 // indirect
	github.com/leodido/go-urn v1.2.1 // indirect
	github.com/mattn/go-colorable v0.1.12 // indirect
	github.com/mattn/go-isatty v0.0.14 // indirect
	github.com/mattn/go-runewidth v0.0.3 // indirect
	github.com/olekukonko/tablewriter v0.0.1 // indirect
	github.com/pmezard/go-difflib v1.0.0 // indirect
	github.com/russross/blackfriday/v2 v2.0.1 // indirect
	github.com/shurcooL/sanitized_anchor_name v1.0.0 // indirect
	github.com/ssor/bom v0.0.0-20170718123548-6386211fdfcf // indirect
	github.com/vanng822/css v0.0.0-20190504095207-a21e860bcd04 // indirect
	github.com/vanng822/go-premailer v0.0.0-20191214114701-be27abe028fe // indirect
	golang.org/x/net v0.0.0-20211112202133-69e39bad7dc2 // indirect
	golang.org/x/text v0.3.7 // indirect
	gopkg.in/alexcesaro/quotedprintable.v3 v3.0.0-20150716171945-2caba252f4dc // indirect
	gopkg.in/gomail.v2 v2.0.0-20160411212932-81ebce5c23df // indirect
	gopkg.in/yaml.v2 v2.4.0 // indirect
	gopkg.in/yaml.v3 v3.0.1 // indirect
)
